{
  "images" : [
    {
      "idiom" : "universal",
      "filename" : "papers.co-si88-dark-green-smoke-fog-night-gradation-blur-33-iphone6-wallpaper-250x444-1.jpg",
      "scale" : "1x"
    },
    {
      "idiom" : "universal",
      "scale" : "2x"
    },
    {
      "idiom" : "universal",
      "scale" : "3x"
    }
  ],
  "info" : {
    "version" : 1,
    "author" : "xcode"
  }
}